{
	"mex":{
        "mex_notfromnow":"Note: despite sending the QR-code in DM, the backup will be usable in groups within a few minutes."
	},
	"cb":{
        "cb_setexceptroles":"Set the punishment roles",
        "cb_setexceptroles_menu":"🕹 <b>ROLES OF PUNISHMENT</b>\nChoose on which roles this punishment should act.",
        "cb_setexceptroles_menu_members":"Members",
        "cb_setexceptroles_menu_free":"Free",
        "cb_setexceptroles_menu_mods":"Moderators",
        "cb_setexceptroles_error":"Why you're trying to disable everything? If you don't want it to act, disable the block.",
        "cb_userexceptions":"Exceptions",
        "cb_userexceptions_error":"At the moment, this function isn't available yet. Join to @Bottino to stay updated."
	}
}