{
    "mex": {
        "mex_errordesp": "\ud83d\udeab I've detected <b>flood<\/b> from sources that <b>I can't block<\/b>.\n<i>The group is temporary banned, from now up to 20 minutes you can't add me here.<\/i>",
        "mex_followuson": "Follow us also on <b>this social<\/b>:",
        "mex_whatname": "Name the link of the group or Telegram channel you are about to send.",
        "mex_followtg": "Join our <b>groups and channels<\/b>:"
    },
    "cb": {
        "cb_retr1": "Retrieve previous value",
        "cb_valrep": "Last value recovered.",
        "cb_edittitle": "Change title",
        "cb_edittitle_menu_send": "Now send the new title for the selected group role.",
        "cb_settedtitle": "The title has been successfully edited.",
        "cb_obligations_emoji_cognome": "The users without a surname or with an invisible character will be punished.",
        "cb_obligations_emoji_username": "The users without a username will be punished.",
        "cb_obligations_emoji_foto": "The users without a profile picture will be punished.",
        "cb_info_ostormers": "\ud83d\udd0f<b>HOW THE BLACKLIST WORKS FOR SPAMMER<\/b>\nThe <b>spammer block<\/b> is mainly based on the <b>dangerous links block<\/b>. If a user sends a dangerous link in a group, the staffers receive a notification (where only the user and the message are mentioned, not information about the group) and, after manual review, they'll decide whether to block the user. If you want to help improve the blacklist, <b>activate the block dangerous links in your group together with the blacklist for spammers<\/b>.",
        "cb_eccglob": "Global exceptions",
        "cb_eccglob_menu": "\ud83c\udf10 <b>GLOBAL EXCEPTIONS<\/b>\nBeyond the single link exception for each group, Bottino provide a global exceptions activated by default.\n\n\ud83d\udccb <b>Channels and groups that belong to it:<\/b> %a.",
        "cb_linksocial_home": "<b>ALTERNATIVES LINK<\/b>\nFrom this menu you can set alternative links visible in the <code>link<\/code> command and on l.bottino.dev\/%a.",
        "cb_linksocial_add": "Add social network",
        "cb_linksocial_select": "First, select the social network.",
        "cb_linksocial_send": "Now, send the link of the social.",
        "cb_linksocial_set": "Link for %a set!",
        "cb_linksocial_see": "The %a link for this group is '%b'.",
        "cb_gcb_linksocial": "Groups or channels on Telegram",
        "cb_socialtg": "External social network set",
        "cb_nameset": "Name set. Now send the Telegram link.",
        "cb_limitreached": "You've already set all the social and you've reached the limit of 8 groups or channel on Telegram. You can't set anything now.",
        "cb_linksocial_buttn": "\ud83e\udded Alternative links"
    }
}