{
    "mex": {
        "mex_cosavuoidonesugliadmin": "Here you can find all the options related to the admins. What do you want to edit?",
        "mex_nodescription": "No description",
        "mex_requesturl": "Request URL",
        "mex_adminselectstart_REMODULED": "\ud83d\udc6e <b>ADMINS CONFIGURATION<\/b>\nChoose which administrator's value you want to edit.",
        "mex_selectadmin_REMODULED": "Permissions",
        "mex_seesessions_REMODULED": "Sessions",
        "mex_sessions1_REMODULED": "Here you can see all the settings sessions opened by administrators.\n\n\u2b50\ufe0f <b>TIP:<\/b> tap on a session to delete it.",
        "mex_sessions2_REMODULED": "There aren't any settings sessions open.",
        "mex_closedmenu": "Menu closed.",
        "mex_seerules": "\ud83d\udc49 See the rules",
        "mex_seerulesINFO": "\ud83d\udc49 See your infos",
        "mex_pressbelowINFO": "%a, press here to go to your infos.",
        "mex_ammonizioni": "warns",
        "mex_done_all_1": "\u2705 <b>THANK YOU!<\/b>\nBottino is ready to be used in this group.\n\n \u2022 See the help menu using <b>\/help<\/b>.\n \u2022 Change the settings using <b>\/config<\/b>.\n \u2022 Change the language using the Languages menu in the settings.",
        "mex_agelimit": "\ud83d\udd1e <b>AGE LIMIT<\/b>\nSelect the average age of the group using the buttons below. Bottino will modify the data that needs to be saved according to this.",
        "mex_bottinosec": "\ud83e\udd16 <b>BOT CONFIGURATION<\/b>\nPlease set @BottinoSecurityBot as an administrator with the permissions to delete messages and restrict users.",
        "mex_bottinonorm": "\ud83e\udd16 <b>BOT CONFIGURATION <\/b>\nPlease add me as an administrator with the permissions to delete messages, restrict users and invite users.",
        "mex_retry22": "Retry",
        "mex_helpmenu1": "Help menu",
        "mex_openconf": "Open configuration"
    },
    "cb": {
        "cb_sessions1": "The users you see here, has opened the settings menu. By tapping on one of this it's possible to close him the settings.",
        "cb_sendnowwallpaper": "Now send the wallpaper of the page.",
        "cb_predefpr": "Default wallpaper",
        "cb_revokedapi": "API Key revoked. The previous will stop working within a few minutes.",
        "cb_sendrules": "The rules is sent %a",
        "cb_sendrulespvt": "in DM \ud83d\udc64",
        "cb_sendruleschat": "in the group \ud83d\udc65",
        "cb_cmd91remoduled": "\ud83d\udd79 <b>COMMANDS<\/b>\nHere you can choose which roles can use the commands.",
        "cb_stall": "\ud83d\udc65 Can be used by everyone",
        "cb_stadmin": "\ud83d\udc6e Can be used by admin",
        "cb_stdisabled": "\u274c Disabled",
        "cb_em_general": "Choose who can use the command '%a'.",
        "cb_cmd_or_rules": "rules",
        "cb_cmd_or_translate": "translate",
        "cb_cmd_or_chatid": "chatid",
        "cb_cmd_or_pin": "pin",
        "cb_cmd_or_me": "me",
        "cb_memenu": "\ud83d\udc64<b>'ME' COMMAND<\/b>\nHere you can choose some settings concerning the 'me' command.",
        "cb_memenu1": "Command 'me'",
        "cb_memenu1_showrules": "Show rules",
        "cb_memenu1_showbannedwords": "Show banned words",
        "cb_memenu1_showpersonal": "Show command list",
        "cb_memenu1_showlink": "Show group link",
        "cb_scimmiainvaso": "This menu is a little different from the others. Clarifications:\n\ud83d\udc35 \u00bb eyes not covered, visible\n\ud83d\ude48 \u00bb eyes covered, not visible",
        "cb_twitterint_home": "\ud83d\udd4a <b>TWITTER<\/b>\nFrom here you can set the Twitter profiles to be monitored.",
        "cb_sendtwitteruser": "Send the username of the Twitter profile you want to be monitored. We only support the <code>@username<\/code> format.",
        "cb_errorsending": "The profile is either non-existent or an error has occurred while connecting to Twitter.",
        "cb_profilesetted": "Profile set correctly. Above there are some information.",
        "cb_checkinfotwitt": "\ud83d\udd4a <b>TWITTER PROFILE INFORMATION<\/b>\nProfile: <a href='twitter.com\/%a'>%b<\/a>\nAdded by: %c\nAdded on: %d"
    },
    "pvt": {
        "pvt_standardbotslibrary": "<i>Bottino is a <a href='https:\/\/botslibrary.cf'>BotsLibrary<\/a> project.<\/i>",
        "pvt_saveinformations": "\ud83c\udf10 <b>Do you want to remember this login for 30 days?<\/b>\nIf you accept, this IP will login without blocks.\n\n\u26a0\ufe0f <b>You cannot cancel this this login in the future.<\/b>\n\ud83d\udd5d <b>All of the saved logins will be discarded on the first day of every month.<\/b>",
        "pvt_saveinformations_ready": "Save informations",
        "pvt_saveinformations_done": "\u2764\ufe0f <b>Informations saved.<\/b> For 30 days you will no longer have to approve this IP.",
        "pvt_automatic_approve_1": "Login saved, I've authorized the login.",
        "pvt_advise_approve": "For security reasons, you cannot change your choice. If you want to block this IP, contact us on the <a href='t.me\/bottinohelpbot'>support<\/a>.",
        "pvt_zur_en": "English",
        "pvt_zur_it": "Italian",
        "pvt_zur_fa": "Persian",
        "pvt_zur_zh": "Chinese",
        "pvt_cmddisabledtoshare": "This link has been disabled because it has been shared in groups.",
        "pvt_zur_ru": "Russian"
    }
}