{
    "mex": {
        "mex_obbligoformat_namev": "a name"
    },
    "cb": {
        "cb_personalmenu_REMODULED": "You can create a command with a message or media of your choice. For example, creating a command named <code>test<\/code> (view section <b>Create<\/b>), then sending <code>\/test<\/code> and\/or <code>test<\/code> (based on the choosed mode), Bottino will reply with the previously selected message.",
        "cb_guida1cmds_REMODULED": "Here you can choose the symbols with which the bot commands should begin. For example, by setting the aliases <code>#!<\/code>, will be possible to use only <code>#command<\/code> or <code>!command<\/code>.",
        "cb_bannedwordss_REMODULED": "\ud83c\udd8e <b>BLOCKED WORDS<\/b>\nFrom this section it's possible to block a group of words, the bot will punish the users that will send one of them.",
        "cb_totaldeletedforcanc": "Warning: as there aren't other links set, I've deleted the public page.",
        "cb_obligations_emoji_nomev": "The users with an invisible character in his name will be punished.",
        "cb_obbligonomev": "Name obligation",
        "cb_setexceptroles_long": "Set excluded users for this punishment",
        "cb_betatestingpublic": "We're sorry, this function isn't available for the users yet. Stay tuned on @Bottino to know when will be available.",
        "cb_eccexl": "\u270f\ufe0f <b>EXCEPTIONS TO THE EXCLUDED<\/b>\nHere you can add users that will be excluded from the classic exception.",
        "cb_delaccpun": "Purge deleted accounts",
        "cb_linkpubl": "Public link",
        "cb_pauselink": "Temporary block the link",
        "cb_replylink": "Unblock the link",
        "cb_pauselink_done": "The link has been blocked. Now the users will see an error page.",
        "cb_replylink_done": "The link has been unblocked and now is again available.",
        "cb_addexp": "Add exception",
        "cb_sendnowusertofree": "Now send the user you want to add to the exceptions."
    }
}