{
	"cb":{
        "cb_letturainstagramerror":"Unexpected error occurred while reading the Instagram profile info.",
        "cb_letturatwitcherror":"Unexpected error occurred while reading the Twitch profile info."
    },
    "mex":{
        "mex_romemb_can_send_messages":"Can send messages",
        "mex_romemb_can_send_media_messages":"Can send photos, videos, voice messages",
        "mex_romemb_can_send_polls":"Can send polls",
        "mex_romemb_can_send_other_messages":"Can send GIFs, games, stickers",
        "mex_romemb_can_add_web_page_previews":"Can send links with preview",
        "mex_romemb_can_invite_users":"Can invite users",
        "mex_romemb_can_pin_messages":"Can pin messages",
        "mex_romemb_can_change_info":"Can change group info",
        "mex_has_deleted_all_mex_of":"has deleted all messages of"
    }
}