{
	"mex":{
		"mex_editcommand":"📝 <b>EDIT COMMANDS</b>\nSelect the command you want to edit.",
        "mex_editcommand_selectreply":"📝 <b>EDIT COMMANDS</b>\nYou've selected the command <code>%a</code>. Now select the answer you want to edit.",
        "mex_returntocommandlist":"Go back to the list of commands",
        "mex_editcommand_list_text":"Text",
        "mex_editcommand_list_photo":"Photo",
        "mex_editcommand_list_video":"Video",
        "mex_editcommand_list_video_note":"Video Message",
        "mex_editcommand_list_dice":"Dice",
        "mex_editcommand_list_sticker":"Sticker",
        "mex_editcommand_list_animation":"GIF",
        "mex_editcommand_list_audio":"Audio",
        "mex_editcommand_list_voice":"Voice Message",
        "mex_editcommand_list_contact":"Contact",
        "mex_editcommand_list_document":"File",
        "mex_editcommand_list_location":"Location",
        "mex_editcommand_list_invoice":"Invoice",
        "mex_editcommand_list_masterpoll":"MasterPoll Int.",
        "mex_edittext":"Text",
        "mex_editkb":"Keyboard",
        "mex_remall":"Remove",
        "mex_editreply":"📝 <b>EDIT COMMANDS</b>\nYou've selected the answer #<code>%a</code> of the command <code>%b</code>.",
        "mex_removetodocmd":"Delete the command",
        "mex_returntoreplylist":"Go back to the list of answers",
        "mex_deleteonlythisreply":"Delete only this answer",
        "mex_returntothisreply":"Return to the selected answer",
        "mex_risposta22":"✅ <b>DELETION COMPLETED</b>\nI've deleted the answer <code>%a</code> of the command <code>%b</code>.",
        "mex_risposta33":"✅ <b>TOTAL DELETION COMPLETED</b>\nI've deleted the answer <code>%a</code> of the command <code>%b</code>. As there were no other answers, I totally deleted the personal command.",
        "mex_risposta44":"✅ <b>TOTAL DELETION COMPLETED</b>\nThe command has been deleted from our database, and it will not be possible to recover it.",
        "mex_secondoptions":"Edit advanced options",
        "mex_2partveru_REMODULEDFOREDITPERSONAL":"📝 <b>EDIT COMMANDS</b>\nYou're editing the advanced options of the chosen command.",
        "mex_editcommand_specific_et":"✏️ <b>EDIT TEXT</b>\n<code>%a</code>\n\n» Now send your new answer.",
        "mex_editcommand_specific_ek":"⌨️ <b>EDIT KEYBOARD</b>\n <code>%a</code>\n\n» Now send your new keyboard.",
        "mex_nessunakb":"There is no keyboard set.",
        "mex_removekb":"Remove keyboard",
        "mex_editedparameters":"✅ <b>Yay!</b> Command content edited successfully.",
        "mex_commandfound":"📝 <b>EDIT COMMANDS</b>\nPressing below you can go directly to the editing of the command <code>%a</code>.",
        "mex_proc1":"Proceed"
	}
}