{
    "mex": {
        "mex_error1setchannel": "The Bot isn't in the channel.",
        "mex_error2setchannel": "You aren't a channel administrator.",
        "mex_error3setchannel": "Invalid code.",
        "mex_error4setchannel": "Impossible to proceed. Contact support for more information.",
        "mex_convalidying": "We're preparing the clone of this group for this function. Wait a moment...",
        "mex_readysdas23": "The channel has been connected successfully."
    },
    "pvt": {
        "pvt_bottinfo": "Hello. I can give you information regarding Bottino. Use me inline by specifying username or ID.\n\n<code>@bottinfobot kuogi<\/code>\n<code>@bottinfobot 723935489<\/code>",
        "pvt_group_add": "Adding to groups",
        "pvt_inline_mode": "Inline Bot"
    }
}