{
    "mex": {
        "mex_new_story": "\ud83d\udcff <b>New story by <a href='instagram.com\/%a'>%b<\/a>.<\/b>",
        "mex_new_post": "\ud83d\udcc0 <b>New post by <a href='instagram.com\/%a'>%b<\/a>.<\/b>",
        "mex_nocontent": "\ud83d\udd1e You cannot monitor this because the content is reserved to 18+ yo.",
        "mex_ohnoprofileprivate": "The monitoring of private account is reserved to pro groups only.",
        "mex_ohyesprofileprivate": "I'll send a friend request to the user within 30 minutes. As soon as the user accepts it, I'll start sending notifications on the group.",
        "mex_tiktok_private_failed": "The monitoring of private account is temporarily disabled for this integration.",
        "mex_nopublicrepository": "There aren't any public repository to monitor.",
        "mex_go_to_tweet": "Go to the tweet"
    },
    "pvt": {
        "pvt_donator_research_menu_result": "\ud83d\udd0e <b>SEARCH STRINGS<\/b>\nHere is the result. Press on a string to edit it.",
        "pvt_donator_research_menu_result_failed": "\u274c You've to specify at least 3 characters. Research canceled."
    }
}