{
    "channelbot": {
        "newcommits": "\ud83d\udcf6 <b>New Update to <\/b><a href='%a'>%b<\/a>%s",
        "langbase": "\ud83d\udea9 Notification Language: %b",
        "unlimt": "We're sorry. This feature isn't ready for final release yet. We'll notify you when it's ready. \ud83d\ude0a",
        "gotopage": "Go to the page"
    }
}