{
	"mex":{
        "mex_has_been_blocked_by":"has been blocked from using the @admin command by",
        "mex_has_been_unblocked_by":"was unblocked from using the @admin command by",
        "mex_adminblocklist":"LIST OF BLOCKED USERS",
        "mex_therearentuserblocked":"There are no users blocked from using the @admin command.",
        "mex_isntblocked":"⚠️ The user isn't blocked from using the @⁣admin command.",
        "mex_errbotapidown":"❌ Couldn't reload. Operation blocked."
	},
	"cb":{
        "cb_userboterrorcron":"The group history is turned off, so I can't delete the chat. Turn on the history and wait an hour.",
        "cb_111111":"Wrong keyboard!",
        "cb_slowmodealre":"❌ <b>ERROR</b>\nThe slow mode on the Telegram side is already activated, you cannot modify this menu."
	}
}