{
	"staff_mex":{
        "mex_coinvoltgrp":"\n\n👥 <b>Groups involved:</b>%f",
        "mex_operaincos":"Operation in progress...",
        "mex_failedreq":"Oh, it's got an alien?",
        "mex_desc111_already-banned":"I can't ban or kick the user because he's already been banned.",
        "mex_desc111_isnt-ban":"The user you tried to <b>un</b>ban isn't banned.",
        "mex_desc111_already-muted":"The user you tried to mute has already been muted.",
        "mex_desc111_isnt-mute":"The user you tried to <b>un</b>mute isn't muted.",
        "mex_desc111_is-admin":"I can't act on the user because he's an admin or a moderator of the group.",
        "mex_staffgroup_hashtag":"STAFFGROUP",
        "mex_errortrad1":"⚠️ I don't know any specified user.",
        "mex_limitreq":"⚠️ You can run 1 command every 40 seconds.",
        "mex_limitnumber":"⚠️ You can act on up to 10 users simultaneously."
	}
}