{
	"en":{
		"majorb1":"Welcome to ChannelBot.",
		"majorb12":"ChannelBot is the best Bot for managing your channels. Statistics, post management, social integrations, group links and much more.",
		"class_info":{
			"start":"Start"
		},
		"functions":"Features",
		"discoverfunc":"Discover all the Bot menus. Here are some categories.",
		"postma":"Post management",
		"postma_d":"Sending, scheduling, editing and deleting posts with or without surveys and keyboards.",
		"groups":"Group link",
		"groups_d":"You can link groups to which all messages sent in the channel will be forwarded.",
		"integrations":"Social integrations",
		"integrations_d":"Connect social networks to your channel to receive automatic notifications with each update.",
		"members":"Member management",
		"members_d":"View channel stats, set helpers, perform some actions, and more.",
		"startnow":"Start a new experience",
		"startnow_d":"Add the Bot to your channel and set it up. Help? <a href='tg://resolve?domain=channelsupportbot'>@ChannelSupportBot</a>.",
		"help":"Help",
		"news":"News",
		"testim":"Bot tester"
	}
}